{
  "taxes": [
    {
      "lago_id": "1a901a90-1a90-1a90-1a90-1a901a901a90",
      "name": "tax_name",
      "code": "tax_code",
      "rate": 15.0,
      "description": "tax_desc",
      "customers_count": 0,
      "applied_to_organization": false,
      "created_at": "2022-04-29T08:59:51Z"
    }
  ],
  "meta": {
    "current_page": 1,
    "next_page": 2,
    "prev_page": null,
    "total_pages": 8,
    "total_count": 73
  }
}
